Lab 3: The 2014 Ebola Epidemic, Part 1
…
The first step for our data analysis is to load the tidyverse library. After that, you can read the WHO ebola data with the read_csv() function.

library(tidyverse)

# Load data into R 
ebola_raw <- read_csv("data/ebola.csv")

# Look at some data characteristics
dim(ebola_raw)

## [1] 156   7

ebola_raw

## # A tibble: 156 x 7
##    `WHO report date` `Total Cases, Guinea` `Total Deaths, Guinea`
##                <chr>                 <int>                  <int>
##  1            3/1/14                     0                      0
##  2            3/2/14                     0                      0
##  3            3/3/14                     0                      0
##  4            3/4/14                     0                      0
##  5            3/5/14                     0                      0
##  6            3/6/14                     0                      0
##  7            3/7/14                     0                      0
##  8            3/8/14                     0                      0
##  9            3/9/14                     0                      0
## 10           3/10/14                     0                      0
## # ... with 146 more rows, and 4 more variables: `Total Cases,
## #   Liberia` <int>, `Total Deaths, Liberia` <int>, `Total Cases, Sierra
## #   Leone` <int>, `Total Deaths, Sierra Leone` <int>
…
